<svg width="5" height="19" viewBox="0 0 5 19" fill="none" xmlns="http://www.w3.org/2000/svg">
<circle cx="2.44286" cy="2.44286" r="2.44286" fill="#0435F0"/>
<circle cx="2.44286" cy="9.49999" r="2.44286" fill="#0435F0"/>
<circle cx="2.44286" cy="16.5571" r="2.44286" fill="#0435F0"/>
</svg>
