<svg width="13" height="13" viewBox="0 0 13 13" fill="none" xmlns="http://www.w3.org/2000/svg">
<path d="M7.50781 0.434204C6.71189 -0.0656438 6.48457 -0.00997636 6.71189 0.822717C6.93921 1.65599 6.76887 3.32196 5.74563 4.32165C5.74563 4.32165 5.19008 5.11086 5.23401 3.98823C5.26368 3.22512 5.10402 2.32574 4.6749 1.63512C4.38942 1.17586 3.81132 1.17876 3.52702 2.01725C3.24272 2.85574 2.91747 3.26629 2.11443 4.37674C1.31138 5.48777 0.458484 7.34916 1.08406 9.19546C1.70964 11.0418 3.64217 12.7234 6.3991 12.8823C7.61939 12.9524 11.7711 11.6947 12.1124 7.75797C12.4537 3.82181 8.30373 0.933472 7.50781 0.433624V0.434204ZM6.52433 11.5445C6.05723 11.1235 4.48854 9.70285 3.94605 9.14501C3.2451 8.42366 2.88779 7.71041 2.94002 7.13576C2.97563 6.74667 3.19821 6.40223 3.6024 6.11229C3.95614 5.85831 4.30217 5.76031 4.62564 5.76031C5.41919 5.76031 6.07563 6.35236 6.37951 6.68231L6.52137 6.83597L6.66738 6.68636C6.91013 6.4376 7.40394 5.98936 7.98085 5.78293C8.53699 5.58345 9.03436 5.66115 9.45814 6.01256C9.8564 6.3425 10.0748 6.73507 10.1081 7.17867C10.149 7.72781 9.89913 8.33088 9.40591 8.8777C9.02961 9.29462 7.05732 11.0673 6.52433 11.5451V11.5445Z" fill="white"/>
</svg>
