<svg width="23" height="23" viewBox="0 0 23 23" fill="none" xmlns="http://www.w3.org/2000/svg">
<path d="M15.5105 0.727699C14.2045 0.241766 12.8476 0 11.4944 0C9.86489 0 8.241 0.350641 6.7148 1.04872C3.92182 2.3268 1.79346 4.61557 0.722479 7.49354C-1.48876 13.4348 1.54724 20.067 7.48991 22.2777C13.4326 24.4884 20.0663 21.4531 22.2775 15.5118C24.4888 9.57057 21.4528 2.93842 15.5101 0.727699H15.5105ZM17.3986 13.3023C16.5306 14.2866 11.5004 18.8826 11.5004 18.8826C11.5004 18.8826 7.46869 15.1764 6.20473 13.8459C4.27335 11.8125 3.00138 9.13187 5.58696 7.23256C8.35751 5.19757 10.857 7.70089 11.504 8.41938C12.8753 6.98199 15.3519 5.26001 17.4615 7.04924C19.5682 8.83606 19.1134 11.3578 17.3986 13.3019V13.3023Z" fill="url(#paint0_linear_162_151)"/>
<defs>
<linearGradient id="paint0_linear_162_151" x1="1.48118" y1="3.55524" x2="24.4734" y2="21.8022" gradientUnits="userSpaceOnUse">
<stop offset="0.04" stop-color="#DE57FF"/>
<stop offset="0.05" stop-color="#D155FE"/>
<stop offset="0.12" stop-color="#944BF9"/>
<stop offset="0.19" stop-color="#6043F6"/>
<stop offset="0.26" stop-color="#383DF3"/>
<stop offset="0.32" stop-color="#1B38F1"/>
<stop offset="0.37" stop-color="#0A35F0"/>
<stop offset="0.41" stop-color="#0435F0"/>
<stop offset="0.5" stop-color="#0B42F1"/>
<stop offset="0.66" stop-color="#1D66F4"/>
<stop offset="0.88" stop-color="#3C9FF8"/>
<stop offset="0.98" stop-color="#4ABAFB"/>
</linearGradient>
</defs>
</svg>
