<svg width="32" height="32" viewBox="0 0 32 32" fill="none" xmlns="http://www.w3.org/2000/svg">
<path d="M16.0006 32.0011C24.8374 32.0011 32.0011 24.8374 32.0011 16.0006C32.0011 7.1637 24.8374 0 16.0006 0C7.1637 0 0 7.1637 0 16.0006C0 24.8374 7.1637 32.0011 16.0006 32.0011Z" fill="url(#paint0_linear_126_59)"/>
<defs>
<linearGradient id="paint0_linear_126_59" x1="7.99857" y1="2.14083" x2="24.0014" y2="29.8592" gradientUnits="userSpaceOnUse">
<stop stop-color="#DE57FF"/>
<stop offset="0.02" stop-color="#D155FE"/>
<stop offset="0.1" stop-color="#944BF9"/>
<stop offset="0.18" stop-color="#6043F6"/>
<stop offset="0.26" stop-color="#383DF3"/>
<stop offset="0.33" stop-color="#1B38F1"/>
<stop offset="0.39" stop-color="#0A35F0"/>
<stop offset="0.44" stop-color="#0435F0"/>
<stop offset="0.98" stop-color="#4ABAFB"/>
</linearGradient>
</defs>
</svg>
