<svg width="39" height="45" viewBox="0 0 39 45" fill="none" xmlns="http://www.w3.org/2000/svg">
<path d="M19.2289 32.221L18.8867 31.9061C18.6676 31.7048 13.5031 26.9536 11.8332 25.1946C10.4074 23.693 8.75153 21.4154 8.95897 19.0907C9.07733 17.7588 9.79177 16.6032 11.0809 15.6556C12.7795 14.4079 14.6769 14.187 16.5695 15.0168C17.6854 15.5062 18.5981 16.2603 19.2448 16.9113C20.0062 16.1755 21.2283 15.1681 22.6474 14.6477C24.4277 13.9948 26.0957 14.267 27.4715 15.4342C28.6984 16.4751 29.4019 17.7844 29.5062 19.2195C29.6313 20.9456 28.8973 22.8065 27.4404 24.4594C26.2836 25.7718 19.847 31.6572 19.573 31.9074L19.2295 32.221H19.2289ZM14.3249 15.5428C13.4896 15.5428 12.5958 15.8027 11.6813 16.4745C10.6368 17.2414 10.0614 18.1523 9.96931 19.1817C9.83386 20.7009 10.757 22.5887 12.569 24.4966C13.971 25.9731 18.0246 29.7298 19.2314 30.8439C20.6096 29.5797 25.7058 24.8914 26.6783 23.7888C27.9535 22.3422 28.5984 20.7461 28.4928 19.2939C28.408 18.1206 27.843 17.0828 26.8138 16.2097C25.7174 15.2798 24.4325 15.0748 22.9957 15.602C21.5046 16.1486 20.2295 17.3341 19.6017 17.9919L19.2234 18.3879L18.8568 17.9809C18.0715 17.109 16.3748 15.5428 14.3243 15.5428H14.3249Z" fill="url(#paint0_linear_132_1136)"/>
<path d="M19.1563 35.0002C19.0556 35.0002 18.9605 34.9978 18.8726 34.9923C15.4102 34.7879 12.2066 33.6384 9.60629 31.667C7.2409 29.8738 5.4606 27.443 4.59363 24.823C2.68094 19.042 5.87547 13.6038 7.3379 11.5336C7.50019 11.3041 7.65455 11.0863 7.80159 10.8783C9.53917 8.4255 10.2585 7.41023 10.907 5.45228C11.5025 3.65481 12.4897 3.28445 13.0253 3.22405C13.7776 3.13863 14.5061 3.54742 14.9734 4.31742C16.0393 6.07341 16.5981 8.46577 16.506 10.8813C16.4926 11.2285 16.5036 11.4701 16.5213 11.6348C16.5902 11.5598 16.6597 11.4738 16.7159 11.3926L16.747 11.3475L16.7867 11.3078C18.1875 9.90753 18.8079 8.09297 19.0819 6.81778C19.4004 5.33575 19.4174 3.73535 19.1258 2.64075C18.8586 1.64012 18.6987 0.650473 19.329 0.191037C19.9549 -0.265349 20.8542 0.139785 22.1019 0.942121C23.4478 1.8073 35.2241 9.71778 34.2791 20.8809C33.7818 26.7517 30.306 30.2167 27.4782 32.0898C24.205 34.2577 20.8353 35.0008 19.1557 35.0008L19.1563 35.0002ZM13.2181 4.43274C13.1998 4.43274 13.1815 4.43396 13.1632 4.43579C12.7508 4.48277 12.3408 5.00566 12.0656 5.83545C11.3597 7.96668 10.5568 9.10032 8.79728 11.5836C8.65025 11.7917 8.49589 12.0089 8.33421 12.2377C6.97916 14.1566 4.01403 19.1866 5.75223 24.4393C7.18965 28.7829 11.8259 33.3534 18.944 33.7738C20.2862 33.8531 23.6064 33.1893 26.8046 31.0715C29.4086 29.3472 32.608 26.1617 33.0637 20.7772C33.9484 10.3261 22.7254 2.79268 21.4424 1.96777C20.6926 1.48576 20.3021 1.31309 20.1093 1.25207C20.1124 1.41986 20.149 1.7408 20.3051 2.32592C20.6486 3.61454 20.6377 5.38944 20.2753 7.07404C19.969 8.49811 19.2716 10.5268 17.6878 12.1315C17.4163 12.5128 16.7793 13.2548 16.0625 13.0168C15.3145 12.7691 15.2504 11.774 15.2864 10.8337C15.3681 8.68359 14.8611 6.48342 13.9301 4.94953C13.7312 4.62127 13.4683 4.43213 13.2175 4.43213L13.2181 4.43274Z" fill="url(#paint1_linear_132_1136)"/>
<defs>
<linearGradient id="paint0_linear_132_1136" x1="8.94128" y1="23.2611" x2="29.519" y2="23.2611" gradientUnits="userSpaceOnUse">
<stop stop-color="#0435F0"/>
<stop offset="0.91" stop-color="#0435F0"/>
</linearGradient>
<linearGradient id="paint1_linear_132_1136" x1="4" y1="17.4995" x2="34.334" y2="17.4995" gradientUnits="userSpaceOnUse">
<stop stop-color="#0435F0"/>
<stop offset="0.91" stop-color="#0435F0"/>
</linearGradient>
</defs>
</svg>
