<svg width="23" height="18" viewBox="0 0 23 18" fill="none" xmlns="http://www.w3.org/2000/svg">
<path d="M23.0004 9.37151C22.958 9.47408 22.9121 9.57582 22.8722 9.68005C22.5803 10.4386 21.8389 10.9531 20.9944 10.9795C20.8757 10.9837 20.7571 10.9812 20.6376 10.9812C12.8794 10.9812 15.3219 10.9812 7.56374 10.9812H7.11593C7.2294 11.1003 7.30129 11.1822 7.38011 11.2575C8.54077 12.3667 9.71095 13.4685 10.8621 14.5868C12.0366 15.7266 11.5204 17.5663 9.92142 17.9377C9.13322 18.1205 8.45588 17.8955 7.88335 17.3479C6.02198 15.5645 4.1554 13.7861 2.29143 12.006C1.75614 11.4957 1.21912 10.987 0.687299 10.4733C-0.226499 9.58989 -0.231696 8.41035 0.687299 7.53024C3.09089 5.2274 5.49968 2.93119 7.90674 0.632486C8.48966 0.0758021 9.18606 -0.127681 9.98206 0.0791108C10.7538 0.279285 11.2527 0.773105 11.4398 1.51425C11.6269 2.25456 11.4069 2.8981 10.8422 3.43659C9.69449 4.5301 8.55029 5.6261 7.40177 6.71796C7.31862 6.79737 7.21381 6.8561 7.1194 6.92392C7.13412 6.95536 7.14971 6.98679 7.16444 7.01822H7.53083C15.2137 7.01822 12.6949 7.03228 20.3777 7.00416C21.6821 6.9992 22.5951 7.39458 23.0004 8.62789V9.37151Z" fill="white"/>
</svg>
