<svg width="84" height="127" viewBox="0 0 84 127" fill="none" xmlns="http://www.w3.org/2000/svg">
<path d="M72.5046 55.8321C75.1334 50.6158 76.6195 44.7192 76.6195 38.4733C76.6195 17.2227 59.4689 0 38.3075 0H0V84.8209C0 108.117 18.8037 127 42.0023 127C65.2008 127 84.0045 108.117 84.0045 84.8209C84.0045 73.5901 79.6322 63.3889 72.5091 55.8276L72.5046 55.8321ZM19.6709 21.0782C19.6709 17.7988 22.3178 15.1408 25.5835 15.1408H27.1328C30.3984 15.1408 33.0453 17.7988 33.0453 21.0782V28.2903C33.0453 31.5697 35.6922 34.2277 38.9579 34.2277H51.0269C54.2926 34.2277 56.9395 36.8857 56.9395 40.1652V55.8593C56.9395 59.1388 54.2926 61.7968 51.0269 61.7968C47.7612 61.7968 45.0602 59.0798 45.1144 55.7595L45.1415 54.1357C45.1957 50.8154 42.5307 48.0984 39.2289 48.0984H25.5835C24.5356 48.0984 23.5554 47.8217 22.7017 47.3455C20.8905 46.3294 19.6664 44.3881 19.6664 42.161V21.0782H19.6709ZM56.944 102.216C56.944 105.495 54.2971 108.153 51.0315 108.153C47.7658 108.153 45.0647 105.436 45.1189 102.116L45.146 100.492C45.2002 97.1721 42.5352 94.4551 39.2334 94.4551H25.588C22.3223 94.4551 19.6754 91.7971 19.6754 88.5176V67.4303C19.6754 64.1509 22.3223 61.4929 25.588 61.4929H27.1373C30.403 61.4929 33.0498 64.1509 33.0498 67.4303V74.6424C33.0498 75.3409 33.1763 76.0077 33.3976 76.6291C34.2107 78.9288 36.3923 80.5798 38.9669 80.5798H51.036C54.3017 80.5798 56.9485 83.2379 56.9485 86.5173V102.211L56.944 102.216Z" fill="url(#paint0_linear_110_39)"/>
<defs>
<linearGradient id="paint0_linear_110_39" x1="-25.9268" y1="-39.2625" x2="89.3801" y2="141.316" gradientUnits="userSpaceOnUse">
<stop offset="0.23" stop-color="#DE57FF"/>
<stop offset="0.24" stop-color="#D155FE"/>
<stop offset="0.32" stop-color="#944BF9"/>
<stop offset="0.4" stop-color="#6043F6"/>
<stop offset="0.46" stop-color="#383DF3"/>
<stop offset="0.53" stop-color="#1B38F1"/>
<stop offset="0.58" stop-color="#0A35F0"/>
<stop offset="0.62" stop-color="#0435F0"/>
<stop offset="0.89" stop-color="#4ABAFB"/>
</linearGradient>
</defs>
</svg>
